---
http_interactions:
- request:
    method: post
    uri: https://www.censys.io/api/v1/search/websites
    body:
      encoding: UTF-8
      string: '{"query":"dropbox.com"}'
    headers:
      Accept-Encoding:
      - gzip;q=1.0,deflate;q=0.6,identity;q=0.3
      Accept:
      - "*/*"
      User-Agent:
      - Ruby
      Host:
      - www.censys.io
      Authorization:
      - "<CENSORED>"
      Content-Type:
      - application/json
  response:
    status:
      code: 200
      message: OK
    headers:
      Content-Type:
      - application/json
      Access-Control-Allow-Origin:
      - "*"
      Strict-Transport-Security:
      - max-age=31536000; includeSubDomains; preload
      X-Cloud-Trace-Context:
      - f1472191dbc8f73e84287a3485a36e2c
      Date:
      - Wed, 12 Sep 2018 23:14:22 GMT
      Server:
      - Google Frontend
      Content-Length:
      - '5360'
    body:
      encoding: UTF-8
      string: '{"status": "ok", "results": [{"domain": "dropbox.com", "alexa_rank":
        77}, {"domain": "overleaf.com", "alexa_rank": 2002}, {"domain": "tensorflow.org",
        "alexa_rank": 4686}, {"domain": "isitdownrightnow.com", "alexa_rank": 13713},
        {"domain": "skywalker.gr", "alexa_rank": 15405}, {"domain": "dropbox.jp",
        "alexa_rank": 27746}, {"domain": "ifanqiang.com", "alexa_rank": 29078}, {"domain":
        "gpsvisualizer.com", "alexa_rank": 40544}, {"domain": "cloudhq.net", "alexa_rank":
        42095}, {"domain": "wishesmsg.com", "alexa_rank": 45540}, {"domain": "dropboxforum.com",
        "alexa_rank": 46408}, {"domain": "cica.es", "alexa_rank": 58413}, {"domain":
        "websitelists.in", "alexa_rank": 58972}, {"domain": "desixxxpics.com", "alexa_rank":
        61095}, {"domain": "simpsonsua.com.ua", "alexa_rank": 65928}, {"domain": "mybrowserpage.com",
        "alexa_rank": 83423}, {"domain": "cleanhealthychoice.com", "alexa_rank": 98273},
        {"domain": "kidmagz.com", "alexa_rank": 98642}, {"domain": "commando.com.ua",
        "alexa_rank": 107789}, {"domain": "videojs.com", "alexa_rank": 115993}, {"domain":
        "wponlinesupport.com", "alexa_rank": 124487}, {"domain": "shortstatusquotes.com",
        "alexa_rank": 126226}, {"domain": "pannative.blogspot.com", "alexa_rank":
        127061}, {"domain": "panicshougai.com", "alexa_rank": 132850}, {"domain":
        "dropboxer.net", "alexa_rank": 153629}, {"domain": "metabox.io", "alexa_rank":
        154979}, {"domain": "1919girl.com", "alexa_rank": 155762}, {"domain": "adfreeposting.com",
        "alexa_rank": 180759}, {"domain": "siterankdata.com", "alexa_rank": 180815},
        {"domain": "careersitemanager.com", "alexa_rank": 181722}, {"domain": "pnascentral.org",
        "alexa_rank": 194571}, {"domain": "dailybruin.com", "alexa_rank": 194676},
        {"domain": "gieffebeauty.it", "alexa_rank": 199858}, {"domain": "barracudacentral.org",
        "alexa_rank": 203995}, {"domain": "websitelist.in", "alexa_rank": 206390},
        {"domain": "z-o-o-m.eu", "alexa_rank": 217406}, {"domain": "trangnhat.net",
        "alexa_rank": 221336}, {"domain": "diocesitn.it", "alexa_rank": 223009}, {"domain":
        "webrank.online", "alexa_rank": 240760}, {"domain": "casebriefsummary.com",
        "alexa_rank": 242576}, {"domain": "dropboxbusiness.com", "alexa_rank": 248556},
        {"domain": "tosdr.org", "alexa_rank": 252109}, {"domain": "enaco-excellence.fr",
        "alexa_rank": 253763}, {"domain": "voyo.club", "alexa_rank": 254017}, {"domain":
        "proxycrawl.com", "alexa_rank": 258015}, {"domain": "dropbox.design", "alexa_rank":
        261277}, {"domain": "sologuides.com", "alexa_rank": 263328}, {"domain": "maverickbaking.com",
        "alexa_rank": 266878}, {"domain": "minghao88.com", "alexa_rank": 266891},
        {"domain": "descarga-anime-hd.jimdo.com", "alexa_rank": 280679}, {"domain":
        "vm.ee", "alexa_rank": 281081}, {"domain": "kiamisu.de", "alexa_rank": 281460},
        {"domain": "amwalalghad.com", "alexa_rank": 281762}, {"domain": "filezillapro.com",
        "alexa_rank": 281891}, {"domain": "likesite.xyz", "alexa_rank": 281954}, {"domain":
        "textio.com", "alexa_rank": 284038}, {"domain": "damaruta.com", "alexa_rank":
        296318}, {"domain": "anything2mp3.cc", "alexa_rank": 311898}, {"domain": "handledmovie.com",
        "alexa_rank": 314285}, {"domain": "offroadrest.ru", "alexa_rank": 317512},
        {"domain": "cupomvalido.com.br", "alexa_rank": 318700}, {"domain": "kawahara.ca",
        "alexa_rank": 319086}, {"domain": "daneden.me", "alexa_rank": 319518}, {"domain":
        "boqxr.tumblr.com", "alexa_rank": 330689}, {"domain": "huntingtoningalls.com",
        "alexa_rank": 331503}, {"domain": "grabfrom.com", "alexa_rank": 335304}, {"domain":
        "tennisakademie.wien", "alexa_rank": 336218}, {"domain": "baswijdenes.com",
        "alexa_rank": 341283}, {"domain": "deporteescolar.club", "alexa_rank": 342047},
        {"domain": "dropboxstatic.com", "alexa_rank": 343369}, {"domain": "3dprintedtabletop.com",
        "alexa_rank": 344130}, {"domain": "draggo.com", "alexa_rank": 345867}, {"domain":
        "sellf.io", "alexa_rank": 350246}, {"domain": "urllists.com", "alexa_rank":
        352480}, {"domain": "spiderbeat.com", "alexa_rank": 353410}, {"domain": "pspdfkit.com",
        "alexa_rank": 356250}, {"domain": "stellaplan.de", "alexa_rank": 360511},
        {"domain": "techerator.com", "alexa_rank": 362366}, {"domain": "eatingrichly.com",
        "alexa_rank": 375372}, {"domain": "lindal.com", "alexa_rank": 404365}, {"domain":
        "reactforbeginners.com", "alexa_rank": 410913}, {"domain": "willsdrumlessons.com",
        "alexa_rank": 420294}, {"domain": "leechlisting.com", "alexa_rank": 425470},
        {"domain": "cvmail.com.au", "alexa_rank": 426836}, {"domain": "strg-circle.livejournal.com",
        "alexa_rank": 436842}, {"domain": "provlas.se", "alexa_rank": 453167}, {"domain":
        "ohnips.storenvy.com", "alexa_rank": 456502}, {"domain": "bicchu.org", "alexa_rank":
        459340}, {"domain": "londonroad.net", "alexa_rank": 461198}, {"domain": "howtoebike.com",
        "alexa_rank": 462108}, {"domain": "howtodo.rocks", "alexa_rank": 465125},
        {"domain": "verady.com", "alexa_rank": 470266}, {"domain": "rec724.ir", "alexa_rank":
        473828}, {"domain": "dropboxlinks56.tumblr.com", "alexa_rank": 474849}, {"domain":
        "megaparticle.com", "alexa_rank": 480333}, {"domain": "71lbs.com", "alexa_rank":
        482420}, {"domain": "vakilmodafe24.ir", "alexa_rank": 483497}, {"domain":
        "nacuz.com", "alexa_rank": 487922}, {"domain": "vixual.net", "alexa_rank":
        488111}, {"domain": "vrporntimes.com", "alexa_rank": 492597}], "metadata":
        {"count": 247, "query": "dropbox.com", "backend_time": 121, "page": 1, "pages":
        3}}'
    http_version: 
  recorded_at: Wed, 12 Sep 2018 23:14:23 GMT
recorded_with: VCR 4.0.0
